%YAML 1.1
%TAG !u! tag:unity3d.com,2011:
--- !u!65 &6931138690266917033
BoxCollider:
  m_ObjectHideFlags: 0
  m_CorrespondingSourceObject: {fileID: 0}
  m_PrefabInstance: {fileID: 0}
  m_PrefabAsset: {fileID: 0}
  m_GameObject: {fileID: 163953011443430084}
  m_Material: {fileID: 0}
  m_IsTrigger: 0
  m_Enabled: 1
  serializedVersion: 2
  m_Size: {x: 1.9999998, y: 4.1868486, z: 2.0380685}
  m_Center: {x: 0, y: -1.0934242, z: 0.019034032}
--- !u!1 &5883261592005482369
GameObject:
  m_ObjectHideFlags: 0
  m_CorrespondingSourceObject: {fileID: 0}
  m_PrefabInstance: {fileID: 0}
  m_PrefabAsset: {fileID: 0}
  serializedVersion: 6
  m_Component:
  - component: {fileID: 990313599067107137}
  - component: {fileID: 5558486587648287651}
  - component: {fileID: -595884604853660415}
  m_Layer: 0
  m_Name: Cheese 1
  m_TagString: Food
  m_Icon: {fileID: 0}
  m_NavMeshLayer: 0
  m_StaticEditorFlags: 0
  m_IsActive: 1
--- !u!4 &990313599067107137
Transform:
  m_ObjectHideFlags: 0
  m_CorrespondingSourceObject: {fileID: 0}
  m_PrefabInstance: {fileID: 0}
  m_PrefabAsset: {fileID: 0}
  m_GameObject: {fileID: 5883261592005482369}
  m_LocalRotation: {x: 0, y: 0, z: 0, w: 1}
  m_LocalPosition: {x: 0, y: 0, z: 0}
  m_LocalScale: {x: 1, y: 1, z: 1}
  m_Children:
  - {fileID: 3755196962197340375}
  m_Father: {fileID: 0}
  m_RootOrder: 0
  m_LocalEulerAnglesHint: {x: 0, y: 0, z: 0}
--- !u!114 &5558486587648287651
MonoBehaviour:
  m_ObjectHideFlags: 0
  m_CorrespondingSourceObject: {fileID: 0}
  m_PrefabInstance: {fileID: 0}
  m_PrefabAsset: {fileID: 0}
  m_GameObject: {fileID: 5883261592005482369}
  m_Enabled: 1
  m_EditorHideFlags: 0
  m_Script: {fileID: 11500000, guid: 259eb9699874e1649a1a95707c254d34, type: 3}
  m_Name: 
  m_EditorClassIdentifier: 
  spawnChance: 0.8
  hungerAmount: 1
  carbonAmount: 1
  rotateSpeed: 30
  FoodTag: Cheese
--- !u!54 &-595884604853660415
Rigidbody:
  m_ObjectHideFlags: 0
  m_CorrespondingSourceObject: {fileID: 0}
  m_PrefabInstance: {fileID: 0}
  m_PrefabAsset: {fileID: 0}
  m_GameObject: {fileID: 5883261592005482369}
  serializedVersion: 2
  m_Mass: 1
  m_Drag: 0
  m_AngularDrag: 0.05
  m_UseGravity: 0
  m_IsKinematic: 1
  m_Interpolate: 0
  m_Constraints: 0
  m_CollisionDetection: 0
--- !u!1001 &8171666570154585037
PrefabInstance:
  m_ObjectHideFlags: 0
  serializedVersion: 2
  m_Modification:
    m_TransformParent: {fileID: 990313599067107137}
    m_Modifications:
    - target: {fileID: -927199367670048503, guid: a42e92b81b25f9e4b83b213552662bb0,
        type: 3}
      propertyPath: m_Name
      value: CheeseObject
      objectReference: {fileID: 0}
    - target: {fileID: -927199367670048503, guid: a42e92b81b25f9e4b83b213552662bb0,
        type: 3}
      propertyPath: m_TagString
      value: Food
      objectReference: {fileID: 0}
    - target: {fileID: -4216859302048453862, guid: a42e92b81b25f9e4b83b213552662bb0,
        type: 3}
      propertyPath: m_LocalPosition.x
      value: 0
      objectReference: {fileID: 0}
    - target: {fileID: -4216859302048453862, guid: a42e92b81b25f9e4b83b213552662bb0,
        type: 3}
      propertyPath: m_LocalPosition.y
      value: 0.462
      objectReference: {fileID: 0}
    - target: {fileID: -4216859302048453862, guid: a42e92b81b25f9e4b83b213552662bb0,
        type: 3}
      propertyPath: m_LocalPosition.z
      value: -0.595
      objectReference: {fileID: 0}
    - target: {fileID: -4216859302048453862, guid: a42e92b81b25f9e4b83b213552662bb0,
        type: 3}
      propertyPath: m_LocalRotation.x
      value: -0.7071068
      objectReference: {fileID: 0}
    - target: {fileID: -4216859302048453862, guid: a42e92b81b25f9e4b83b213552662bb0,
        type: 3}
      propertyPath: m_LocalRotation.y
      value: -0
      objectReference: {fileID: 0}
    - target: {fileID: -4216859302048453862, guid: a42e92b81b25f9e4b83b213552662bb0,
        type: 3}
      propertyPath: m_LocalRotation.z
      value: -0
      objectReference: {fileID: 0}
    - target: {fileID: -4216859302048453862, guid: a42e92b81b25f9e4b83b213552662bb0,
        type: 3}
      propertyPath: m_LocalRotation.w
      value: 0.7071068
      objectReference: {fileID: 0}
    - target: {fileID: -4216859302048453862, guid: a42e92b81b25f9e4b83b213552662bb0,
        type: 3}
      propertyPath: m_RootOrder
      value: 0
      objectReference: {fileID: 0}
    - target: {fileID: -4216859302048453862, guid: a42e92b81b25f9e4b83b213552662bb0,
        type: 3}
      propertyPath: m_LocalEulerAnglesHint.x
      value: 0
      objectReference: {fileID: 0}
    - target: {fileID: -4216859302048453862, guid: a42e92b81b25f9e4b83b213552662bb0,
        type: 3}
      propertyPath: m_LocalEulerAnglesHint.y
      value: 0
      objectReference: {fileID: 0}
    - target: {fileID: -4216859302048453862, guid: a42e92b81b25f9e4b83b213552662bb0,
        type: 3}
      propertyPath: m_LocalEulerAnglesHint.z
      value: 0
      objectReference: {fileID: 0}
    - target: {fileID: -4216859302048453862, guid: a42e92b81b25f9e4b83b213552662bb0,
        type: 3}
      propertyPath: m_LocalScale.y
      value: 0.42602205
      objectReference: {fileID: 0}
    - target: {fileID: -4216859302048453862, guid: a42e92b81b25f9e4b83b213552662bb0,
        type: 3}
      propertyPath: m_LocalScale.z
      value: 0.42602205
      objectReference: {fileID: 0}
    m_RemovedComponents: []
  m_SourcePrefab: {fileID: 100100000, guid: a42e92b81b25f9e4b83b213552662bb0, type: 3}
--- !u!1 &163953011443430084 stripped
GameObject:
  m_CorrespondingSourceObject: {fileID: -927199367670048503, guid: a42e92b81b25f9e4b83b213552662bb0,
    type: 3}
  m_PrefabInstance: {fileID: 8171666570154585037}
  m_PrefabAsset: {fileID: 0}
--- !u!4 &3755196962197340375 stripped
Transform:
  m_CorrespondingSourceObject: {fileID: -4216859302048453862, guid: a42e92b81b25f9e4b83b213552662bb0,
    type: 3}
  m_PrefabInstance: {fileID: 8171666570154585037}
  m_PrefabAsset: {fileID: 0}
